R I: Basics
…
```r
bball = bball %>% 
  mutate(
    trueShooting = PTS / (2 * (FGA + (.44 * FTA))),
    effectiveFG  = (FG + (.5 * X3P)) / FGA,
    shootingDif  = trueShooting - FG.
  )

bball %>% 
  select(Player, trueShooting:shootingDif)
```

```
# A tibble: 708 x 4
   Player                 trueShooting effectiveFG shootingDif
   <chr>                         <dbl>       <dbl>       <dbl>
 1 Álex Abrines                  0.507       0.487     0.150  
 2 Quincy Acy                    0.379       0.278     0.157  
 3 Jaylen Adams                  0.474       0.459     0.129  
 4 Steven Adams                  0.591       0.595    -0.00405
 5 Bam Adebayo                   0.623       0.579     0.0466 
 6 Deng Adel                     0.424       0.389     0.118  
 7 DeVaughn Akoon-Purcell        0.322       0.3       0.0217 
 8 LaMarcus Aldridge             0.576       0.522     0.0566 
 9 Rawle Alkins                  0.418       0.372     0.0848 
10 Grayson Allen                 0.516       0.466     0.140  
# … with 698 more rows
```
…
